{
    "KPlugin": {
        "Description": "Stores network cookies",
        "Description[ar]": "يُخزّن كعكات الشبكة",
        "Description[az]": "Şəbəkə kukilərinin saxlanması",
        "Description[ca@valencia]": "Emmagatzema les galetes de la xarxa",
        "Description[ca]": "Emmagatzema les galetes de la xarxa",
        "Description[cs]": "Ukládá síťová cookie",
        "Description[da]": "Gemmer netværks-cookies",
        "Description[de]": "Speichert Netzwerk-Cookies",
        "Description[el]": "Αποθηκεύει δικτυακά cookies",
        "Description[en_GB]": "Stores network cookies",
        "Description[es]": "Guarda las cookies de la red",
        "Description[et]": "Võrguküpsiste salvestamine",
        "Description[eu]": "Sareko cookiak biltegiratzen ditu",
        "Description[fi]": "Säilyttää verkkoevästeitä",
        "Description[fr]": "Stocke les cookies réseau",
        "Description[gd]": "Glèidhidh seo briosgaidean lìonraidh",
        "Description[gl]": "Garda cookies da rede",
        "Description[hu]": "Hálózati sütik tárolása",
        "Description[ia]": "Il immagazina le cookies de rete",
        "Description[id]": "Simpanan cookie jaringan",
        "Description[it]": "Memorizza i cookie di rete",
        "Description[ko]": "네트워크 쿠키 저장",
        "Description[lt]": "Saugo tinklo slapukus",
        "Description[nl]": "Slaat netwerk-cookies op",
        "Description[nn]": "Lagrar infokapslar frå nettverket",
        "Description[pl]": "Przechowuje ciasteczka sieciowe",
        "Description[pt]": "Guarda os 'cookies' de rede",
        "Description[pt_BR]": "Armazena os cookies da rede",
        "Description[ro]": "Stochează cookie-uri de rețea",
        "Description[ru]": "Сохранение сетевых cookie",
        "Description[sk]": "Ukladá sieťové cookies",
        "Description[sl]": "Hrani omrežne piškotke",
        "Description[sr@ijekavian]": "Складишти мрежне колачиће",
        "Description[sr@ijekavianlatin]": "Skladišti mrežne kolačiće",
        "Description[sr@latin]": "Skladišti mrežne kolačiće",
        "Description[sr]": "Складишти мрежне колачиће",
        "Description[sv]": "Lagrar nätverkskakor",
        "Description[tg]": "Кукиҳои шабакаро нигоҳ медорад",
        "Description[tr]": "Ağ çerezlerini saklar",
        "Description[uk]": "Зберігання кук мережі",
        "Description[x-test]": "xxStores network cookiesxx",
        "Description[zh_CN]": "存储网络 Cookie",
        "Description[zh_TW]": "儲存網路 cookies",
        "Name": "Cookie Jar",
        "Name[ar]": "إناء الكعك",
        "Name[az]": "Kuki Xidməti",
        "Name[ca@valencia]": "Repositori de les galetes",
        "Name[ca]": "Repositori de les galetes",
        "Name[cs]": "Cookie Jar",
        "Name[da]": "Cookie jar",
        "Name[de]": "Cookie-Behälter",
        "Name[el]": "Cookie Jar",
        "Name[en_GB]": "Cookie Jar",
        "Name[es]": "Tarro de las galletas",
        "Name[et]": "Küpsisekarp",
        "Name[eu]": "Cookie ontzia",
        "Name[fi]": "Evästeiden säilytys",
        "Name[fr]": "Boîte à Cookies",
        "Name[gd]": "Crogan bhriosgaidean",
        "Name[gl]": "Bote de cookies",
        "Name[hu]": "Sütitároló",
        "Name[ia]": "Cookie Jar",
        "Name[id]": "Cookie Jar",
        "Name[it]": "Contenitore dei cookie",
        "Name[ko]": "쿠키 통",
        "Name[lt]": "Slapukų indas",
        "Name[nl]": "Cookie-depot",
        "Name[nn]": "Infokapsel-lager",
        "Name[pl]": "Słoiki z ciastkami",
        "Name[pt]": "Repositório de 'Cookies'",
        "Name[pt_BR]": "Repositório de cookies",
        "Name[ro]": "Cookie Jar",
        "Name[ru]": "Служба cookie",
        "Name[sk]": "Úložisko cookie",
        "Name[sl]": "Posoda s piškotki",
        "Name[sr@ijekavian]": "Тегла колачића",
        "Name[sr@ijekavianlatin]": "Tegla kolačića",
        "Name[sr@latin]": "Tegla kolačića",
        "Name[sr]": "Тегла колачића",
        "Name[sv]": "Kakburk",
        "Name[tg]": "Гунҷоиши кукиҳо",
        "Name[tr]": "Kurabiye Kavanozu",
        "Name[uk]": "Глечик з куками",
        "Name[x-test]": "xxCookie Jarxx",
        "Name[zh_CN]": "Cookie Jar",
        "Name[zh_TW]": "Cookie Jar",
        "ServiceTypes": [
            "KDEDModule"
        ]
    },
    "X-KDE-DBus-ServiceName": "org.kde.kcookiejar5",
    "X-KDE-Kded-autoload": false,
    "X-KDE-Kded-load-on-demand": true
}
